Our World in Data: Key Crop Yields • cwdata
…
This dataset contains the agricultural yields across crop types and
by entity (e.g. country and region) from 1960 to 2018.

The data can be accessed by loading the cwdata and
calling on the object key_crop_yields, or alternatively
using cwdata::key_crop_yields.

library(dplyr)
library(colorspace)
library(ggplot2)
library(ggrepel)
library(cwdata)
key_crop_yields
#> # A tibble: 143,825 × 5
#>    entity      code   year crop     yield
#>    <chr>       <chr> <dbl> <chr>    <dbl>
#>  1 Afghanistan AFG    1961 wheat     1.02
#>  2 Afghanistan AFG    1961 rice      1.52
#>  3 Afghanistan AFG    1961 maize     1.4 
#>  4 Afghanistan AFG    1961 soybeans NA   
#>  5 Afghanistan AFG    1961 potatoes  8.67
#>  6 Afghanistan AFG    1961 beans    NA   
#>  7 Afghanistan AFG    1961 peas     NA   
#>  8 Afghanistan AFG    1961 cassava  NA   
#>  9 Afghanistan AFG    1961 barley    1.08
#> 10 Afghanistan AFG    1961 cocoa    NA   
#> # … with 143,815 more rows
#> # ℹ Use `print(n = ...)` to see more rows
…
